…
```r
activitydate <-group_by(activity,date)
statnumsteps <- summarise(activitydate, totstep=sum(steps,na.rm = TRUE),meanstep=mean(steps,na.rm = TRUE),medianstep=mean(steps,na.rm = TRUE))
```

```
## `summarise()` ungrouping output (override with `.groups` argument)
```

```r
print(statnumsteps)
```

```
## # A tibble: 61 x 4
##    date       totstep meanstep medianstep
##    <date>       <int>    <dbl>      <dbl>
##  1 2012-10-01       0  NaN        NaN    
##  2 2012-10-02     126    0.438      0.438
##  3 2012-10-03   11352   39.4       39.4  
##  4 2012-10-04   12116   42.1       42.1  
##  5 2012-10-05   13294   46.2       46.2  
##  6 2012-10-06   15420   53.5       53.5  
##  7 2012-10-07   11015   38.2       38.2  
##  8 2012-10-08       0  NaN        NaN    
##  9 2012-10-09   12811   44.5       44.5  
## 10 2012-10-10    9900   34.4       34.4  
## # ... with 51 more rows
```
…
```r
activitydatecomplete <-group_by(activitycomplete,date)
statnumstepscomplete <- summarise(activitydatecomplete, totstep=sum(steps,na.rm = TRUE),meanstep=mean(steps,na.rm = TRUE),medianstep=mean(steps,na.rm = TRUE))
```

```
## `summarise()` ungrouping output (override with `.groups` argument)
```

```r
print(statnumstepscomplete)
```

```
## # A tibble: 61 x 4
##    date       totstep meanstep medianstep
##    <date>       <dbl>    <dbl>      <dbl>
##  1 2012-10-01  10766.   37.4       37.4  
##  2 2012-10-02    126     0.438      0.438
##  3 2012-10-03  11352    39.4       39.4  
##  4 2012-10-04  12116    42.1       42.1  
##  5 2012-10-05  13294    46.2       46.2  
##  6 2012-10-06  15420    53.5       53.5  
##  7 2012-10-07  11015    38.2       38.2  
##  8 2012-10-08  10766.   37.4       37.4  
##  9 2012-10-09  12811    44.5       44.5  
## 10 2012-10-10   9900    34.4       34.4  
## # ... with 51 more rows
```
…
